MPI: 32 size
OpenMP: 4 max threads
Omega = [ 0.000000, 2.000000 ] x [ 0.000000, 1.000000 ]
Grid  = [ 0, 512 ] x [ 0, 512 ]
h1 = 0.003906
h2 = 0.001953
----------------------------------------
Distributed vectors initialization time: 0.003014
----------------------------------------
         0 1.4142135624 0.0000000000
     10000 15.1861316749 11.2126732435
     20000 8.8878803939 22.4258311541
     30000 6.6508998148 33.6414775612
     40000 5.5171848860 44.8578807188
     50000 4.8596529400 56.0739590176
     60000 4.4368307311 67.2884684271
     70000 4.1337321906 78.5004194200
     80000 3.8937624208 89.7120746741
     90000 3.6882117580 100.9228657118
    100000 3.4933706095 112.1330653541
    110000 3.2295505643 123.3430267094
    120000 2.9334024731 134.5540173188
    130000 2.6660802678 145.7649932247
    140000 2.4241494797 156.9754018812
    150000 2.2037824922 168.1851672718
    160000 2.0031990289 179.3956486576
    170000 1.8203517280 190.6064964271
    180000 1.6541547754 201.8165546694
    190000 1.5027253842 213.0265270882
    200000 1.3650883867 224.2368050529
    210000 1.2397514423 235.4467413235
    220000 1.1258592410 246.6569249094
    230000 1.0221073550 257.8670428200
    240000 0.9280719679 269.0771814412
    250000 0.8425597098 280.2878143259
    260000 0.7648616919 291.4979876671
    270000 0.6941987610 302.7077456553
    280000 0.6301788915 313.9173938129
    290000 0.5719751251 325.1269760859
    300000 0.5190868194 336.3363786929
    310000 0.4711065177 347.5450872600
    320000 0.4276326175 358.7540656553
    330000 0.3881120286 369.9629328506
    340000 0.3522300673 381.1716830506
    350000 0.3196847952 392.3730920600
    360000 0.2901476959 403.5748397941
    370000 0.2633056522 414.7766389659
    380000 0.2389980140 425.9780888859
    390000 0.2169179651 437.1795304224
    400000 0.1968546505 448.3805494506
    410000 0.1786957001 459.5812527212
    420000 0.1621905975 470.7814334741
    430000 0.1472149011 481.9813311706
    440000 0.1336018395 493.1816822341
    450000 0.1212838796 504.3821790130
    460000 0.1100885493 515.5833077141
    470000 0.0999245177 526.7839124600
    480000 0.0907031194 537.9848618153
    490000 0.0823260434 549.1855685729
    500000 0.0747314860 560.3872119400
    510000 0.0678451483 571.5868125447
    520000 0.0615893288 582.7870707047
    530000 0.0559128740 593.9877431306
    540000 0.0507584445 605.1875977659
    550000 0.0460767911 616.3881570247
    560000 0.0418332722 627.5899863918
    570000 0.0379780280 638.7928356176
    580000 0.0344802565 649.9958455894
    590000 0.0313033145 661.1988465965
    600000 0.0284220203 672.4016823659
    610000 0.0258051282 683.6053355918
    620000 0.0234296282 694.8092598953
    630000 0.0212718965 706.0139361094
    640000 0.0193135187 717.2195157329
    650000 0.0175368699 728.4243238129
    660000 0.0159252485 739.6300814412
    670000 0.0144596831 750.8361568318
    680000 0.0131300583 762.0414218718
    690000 0.0119237783 773.2481513071
    700000 0.0108266549 784.4544599235
    710000 0.0098316391 795.6616358294
    720000 0.0089287939 806.8694464435
    730000 0.0081086961 818.0764838812
    740000 0.0073640948 829.2842024576
    750000 0.0066874200 840.4920003588
    760000 0.0060737208 851.6997466129
    770000 0.0055161045 862.9077623706
    780000 0.0050098270 874.1159395423
    790000 0.0045499227 885.3241916929
    800000 0.0041324220 896.5328187588
    810000 0.0037535081 907.7415484953
    820000 0.0034090835 918.9499432082
    830000 0.0030965081 930.1585736929
    840000 0.0028126385 941.3671897376
    850000 0.0025548434 952.5756647564
    860000 0.0023206010 963.7846952506
    870000 0.0021079971 974.9932798812
    880000 0.0019148643 986.2031311282
    890000 0.0017393557 997.4116363000
    900000 0.0015801086 1008.6213329353
    910000 0.0014353212 1019.8306992106
    920000 0.0013039972 1031.0401724600
    930000 0.0011845727 1042.2501539847
    940000 0.0010762249 1053.4591794482
    950000 0.0009777467 1064.6687236270
    960000 0.0008882375 1075.8784678952
    970000 0.0008069898 1087.0875740764
    980000 0.0007332303 1098.2979098435
    990000 0.0006661842 1109.5073605070
   1000000 0.0006052346 1120.7174491305
   1010000 0.0005499116 1131.9280944623
   1020000 0.0004996969 1143.1389780152
   1030000 0.0004540400 1154.3493874411
   1040000 0.0004125408 1165.5594118811
   1050000 0.0003748712 1176.7687333987
   1060000 0.0003406222 1187.9768511235
   1070000 0.0003095372 1199.1862861964
   1080000 0.0002812750 1210.3951121352
   1090000 0.0002556167 1221.6036072152
   1100000 0.0002322912 1232.8128433470
   1110000 0.0002111005 1244.0218636623
   1120000 0.0001918422 1255.2306208670
   1130000 0.0001743463 1266.4396096788
   1140000 0.0001584560 1277.6485193188
   1150000 0.0001440032 1288.8586713893
   1160000 0.0001308829 1300.0683973211
   1170000 0.0001189551 1311.2784490787
   1180000 0.0001081255 1322.4880696293
   1190000 0.0000982745 1333.6981777564
   1200000 0.0000893291 1344.9071945164
   1210000 0.0000811976 1356.1163398340
   1220000 0.0000738075 1367.3254198458
   1230000 0.0000670906 1378.5338215658
   1240000 0.0000609856 1389.7418672129
   1250000 0.0000554421 1400.9492087094
   1260000 0.0000504005 1412.1576399988
   1270000 0.0000458175 1423.3660634129
   1280000 0.0000416557 1434.5746456600
   1290000 0.0000378716 1445.7820163588
   1300000 0.0000344317 1456.9904466858
   1310000 0.0000313057 1468.1986000176
   1320000 0.0000284639 1479.4071456106
   1330000 0.0000258813 1490.6168423400
   1340000 0.0000235335 1501.8263245094
   1350000 0.0000213985 1513.0352581917
   1360000 0.0000194588 1524.2445898811
   1370000 0.0000176958 1535.4532527258
   1380000 0.0000160929 1546.6628596011
   1390000 0.0000146362 1557.8730188505
   1400000 0.0000133112 1569.0823068976
   1410000 0.0000121072 1580.2916533564
   1420000 0.0000110124 1591.5010210223
   1430000 0.0000100169 1602.7112467211
   1440000 0.0000091121 1613.9204517988
   1450000 0.0000082896 1625.1300170882
   1460000 0.0000075416 1636.3391682223
   1470000 0.0000068618 1647.5438708293
   1480000 0.0000062439 1658.7488656646
   1490000 0.0000056819 1669.9535278317
   1500000 0.0000051710 1681.1603031658
   1510000 0.0000047061 1692.3700600646
   1520000 0.0000042830 1703.5787787446
   1530000 0.0000038981 1714.7875022976
   1540000 0.0000035477 1725.9944223517
   1550000 0.0000032289 1737.2011292646
   1560000 0.0000029388 1748.4083890976
   1570000 0.0000026748 1759.6171384835
   1580000 0.0000024347 1770.8264669235
   1590000 0.0000022162 1782.0367424129
   1600000 0.0000020174 1793.2463473446
   1610000 0.0000018365 1804.4554482858
   1620000 0.0000016722 1815.6658008270
   1630000 0.0000015228 1826.8736521140
   1640000 0.0000013875 1838.0808989682
   1650000 0.0000012645 1849.2876616317
   1660000 0.0000011533 1860.4948972411
   1670000 0.0000010543 1871.7039734176
----------------------------------------
Residual norm: 0.00000100
E norm       : 0.00000414
L2 norm      : 0.00149885
C norm       : 0.00000779
Iterations   : 1676084 
Total time   : 1878.523672 
