MPI: 128 size
OpenMP disabled
Omega = [ 0.000000, 2.000000 ] x [ 0.000000, 1.000000 ]
Grid  = [ 0, 512 ] x [ 0, 512 ]
h1 = 0.003906
h2 = 0.001953
----------------------------------------
Distributed vectors initialization time: 0.000918
----------------------------------------
         0 1.4142135624 0.0000000000
     10000 15.1861316749 8.3422022541
     20000 8.8878803943 16.6914055341
     30000 6.6508998155 25.0413694329
     40000 5.5171848868 33.4074824271
     50000 4.8596529410 41.7746000647
     60000 4.4368307319 50.1423862365
     70000 4.1337321916 58.5085402859
     80000 3.8937624220 66.8472159965
     90000 3.6882117559 75.1855654694
    100000 3.4933706027 83.5237859471
    110000 3.2295514016 91.8625625788
    120000 2.9334064428 100.2016490788
    130000 2.6660725990 108.5481630918
    140000 2.4241483885 116.8925441447
    150000 2.2037803013 125.2295194941
    160000 2.0031987902 133.5720212518
    170000 1.8203460180 141.9159131694
    180000 1.6541651022 150.2611857518
    190000 1.5027219532 158.6059987871
    200000 1.3650946401 166.9510588071
    210000 1.2397481731 175.2985949071
    220000 1.1258615372 183.6446841577
    230000 1.0221256293 191.9919862918
    240000 0.9281110429 200.3398791412
    250000 0.8425938419 208.6870754706
    260000 0.7648808087 217.0322870412
    270000 0.6941971032 225.3786237553
    280000 0.6301888290 233.7256102777
    290000 0.5719828875 242.0747414247
    300000 0.5191576398 250.4228392929
    310000 0.4711931938 258.7708397624
    320000 0.4276555921 267.1200901518
    330000 0.3881303200 275.4674065824
    340000 0.3522853353 283.8136699741
    350000 0.3197106833 292.1651280694
    360000 0.2901701244 300.5178997835
    370000 0.2633540204 308.8725546471
    380000 0.2390236390 317.2264511929
    390000 0.2169417056 325.5793007576
    400000 0.1968956175 333.9318292647
    410000 0.1787088247 342.2839151165
    420000 0.1621972146 350.6357962623
    430000 0.1472241775 358.9871788153
    440000 0.1336258922 367.3385499129
    450000 0.1212969758 375.6897331941
    460000 0.1100992428 384.0373474482
    470000 0.0999404711 392.3852437329
    480000 0.0907061723 400.7344004200
    490000 0.0823466909 409.0843464800
    500000 0.0747516613 417.4345030317
    510000 0.0678479167 425.7823827211
    520000 0.0616005121 434.1318287953
    530000 0.0559184636 442.4813509753
    540000 0.0507639727 450.8303777553
    550000 0.0460872387 459.1801807270
    560000 0.0418368204 467.5278270823
    570000 0.0379821535 475.8682754176
    580000 0.0344826501 484.2116681764
    590000 0.0313101100 492.5562348447
    600000 0.0284244847 500.9048839070
    610000 0.0258070381 509.2545072764
    620000 0.0234332289 517.6036295553
    630000 0.0212772695 525.9517444764
    640000 0.0193197850 534.2992609200
    650000 0.0175422026 542.6410455929
    660000 0.0159267395 550.9892559917
    670000 0.0144636750 559.3388951329
    680000 0.0131338790 567.6871794400
    690000 0.0119252372 576.0325376353
    700000 0.0108301329 584.3812600023
    710000 0.0098348080 592.7295848776
    720000 0.0089308404 601.0729430506
    730000 0.0081104077 609.4151556341
    740000 0.0073653003 617.7576484400
    750000 0.0066891715 626.1000314541
    760000 0.0060743460 634.4430110776
    770000 0.0055168959 642.7850416023
    780000 0.0050106295 651.1282166506
    790000 0.0045508728 659.4684087953
    800000 0.0041333267 667.8091729729
    810000 0.0037539688 676.1503137918
    820000 0.0034097831 684.4903618706
    830000 0.0030969687 692.8304275565
    840000 0.0028131632 701.1718305400
    850000 0.0025551909 709.5140977059
    860000 0.0023210945 717.8552848388
    870000 0.0021082133 726.1975264471
    880000 0.0019150783 734.5406171929
    890000 0.0017397792 742.8837517447
    900000 0.0015804161 751.2256023506
    910000 0.0014356968 759.5673942059
    920000 0.0013042452 767.9103147153
    930000 0.0011848693 776.2540622506
    940000 0.0010763648 784.6000290459
    950000 0.0009778859 792.9475936941
    960000 0.0008884461 801.2962555600
    970000 0.0008071760 809.6429121870
    980000 0.0007333372 817.9876132282
    990000 0.0006662775 826.3280865176
   1000000 0.0006053893 834.6708501882
   1010000 0.0005500546 843.0173121141
   1020000 0.0004997640 851.3635472258
   1030000 0.0004541041 859.7097564117
   1040000 0.0004126289 868.0518133411
   1050000 0.0003749278 876.3898912764
   1060000 0.0003407083 884.7333913305
   1070000 0.0003095854 893.0776550623
   1080000 0.0002813340 901.4247464953
   1090000 0.0002556592 909.7711196588
   1100000 0.0002323342 918.1184221600
   1110000 0.0002111295 926.4631494694
   1120000 0.0001918821 934.8075633917
   1130000 0.0001743843 943.1524579506
   1140000 0.0001584820 951.4985274612
   1150000 0.0001440382 959.8447662129
   1160000 0.0001309092 968.1926309259
   1170000 0.0001189833 976.5363053659
   1180000 0.0001081446 984.8851000729
   1190000 0.0000982936 993.2313510341
   1200000 0.0000893415 1001.5783755106
   1210000 0.0000812102 1009.9239414941
   1220000 0.0000738188 1018.2715308506
   1230000 0.0000671004 1026.6168026965
   1240000 0.0000609998 1034.9596969753
   1250000 0.0000554519 1043.3034746588
   1260000 0.0000504079 1051.6479527800
   1270000 0.0000458282 1059.9918448906
   1280000 0.0000416635 1068.3358822859
   1290000 0.0000378774 1076.6809878812
   1300000 0.0000344369 1085.0246563023
   1310000 0.0000313108 1093.3695003812
   1320000 0.0000284695 1101.7169599506
   1330000 0.0000258852 1110.0656936270
   1340000 0.0000235372 1118.4134118129
   1350000 0.0000214034 1126.7553213541
   1360000 0.0000194629 1135.0990573517
   1370000 0.0000176989 1143.4404472505
   1380000 0.0000160958 1151.7867742764
   1390000 0.0000146383 1160.1343220247
   1400000 0.0000133131 1168.4787278399
   1410000 0.0000121087 1176.8257789482
   1420000 0.0000110139 1185.1703284141
   1430000 0.0000100185 1193.5129094529
   1440000 0.0000091134 1201.8559361093
   1450000 0.0000082907 1210.1989992788
   1460000 0.0000075429 1218.5419884705
   1470000 0.0000068629 1226.8823411764
   1480000 0.0000062448 1235.2241966917
   1490000 0.0000056822 1243.5680680094
   1500000 0.0000051711 1251.9102527294
   1510000 0.0000047061 1260.2526832164
   1520000 0.0000042830 1268.5969007176
   1530000 0.0000038981 1276.9412209364
   1540000 0.0000035477 1285.2859355294
   1550000 0.0000032290 1293.6267398270
   1560000 0.0000029388 1301.9682223953
   1570000 0.0000026748 1310.3132030000
   1580000 0.0000024346 1318.6602042505
   1590000 0.0000022161 1327.0050170964
   1600000 0.0000020174 1335.3498302600
   1610000 0.0000018367 1343.6940599882
   1620000 0.0000016723 1352.0395023682
   1630000 0.0000015231 1360.3836694141
   1640000 0.0000013877 1368.7287063353
   1650000 0.0000012648 1377.0768668506
   1660000 0.0000011538 1385.4263996258
   1670000 0.0000010544 1393.7762385529
----------------------------------------
Residual norm: 0.00000100
E norm       : 0.00000414
L2 norm      : 0.00149885
C norm       : 0.00000779
Iterations   : 1676051 
Total time   : 1398.826768 
