MPI: 128 size
OpenMP: 4 max threads
Omega = [ 0.000000, 2.000000 ] x [ 0.000000, 1.000000 ]
Grid  = [ 0, 512 ] x [ 0, 512 ]
h1 = 0.003906
h2 = 0.001953
----------------------------------------
Distributed vectors initialization time: 0.000928
----------------------------------------
         0 1.4142135624 0.0000000000
     10000 15.1861316748 4.6545118600
     20000 8.8878803938 9.3093519071
     30000 6.6508998149 13.9644370271
     40000 5.5171848864 18.6188067588
     50000 4.8596529405 23.2740198247
     60000 4.4368307305 27.9276450671
     70000 4.1337321902 32.5777843188
     80000 3.8937624208 37.2273965706
     90000 3.6882117551 41.8767909518
    100000 3.4933706017 46.5258250718
    110000 3.2295519875 51.1751169659
    120000 2.9334049721 55.8236701188
    130000 2.6660788375 60.4723195235
    140000 2.4241507365 65.1208679188
    150000 2.2037833330 69.7695352788
    160000 2.0032019324 74.4178874082
    170000 1.8203543507 79.0664519729
    180000 1.6541503441 83.7150227659
    190000 1.5027284180 88.3635946506
    200000 1.3650926909 93.0114655400
    210000 1.2397488341 97.6598567800
    220000 1.1258494410 102.3072970153
    230000 1.0221064394 106.9549962765
    240000 0.9280451343 111.6027153247
    250000 0.8425376123 116.2502763741
    260000 0.7648525267 120.8973900329
    270000 0.6941985791 125.5448303953
    280000 0.6301764981 130.1918857788
    290000 0.5719789988 134.8388663294
    300000 0.5191225617 139.4863242259
    310000 0.4711454853 144.1337223318
    320000 0.4276456844 148.7810870471
    330000 0.3881196023 153.4289937106
    340000 0.3522570421 158.0766465412
    350000 0.3197030269 162.7248419906
    360000 0.2901624009 167.3735743882
    370000 0.2633311563 172.0222733365
    380000 0.2390165680 176.6718685129
    390000 0.2169320962 181.3225500376
    400000 0.1968761346 185.9732416965
    410000 0.1787009704 190.6231580376
    420000 0.1621927591 195.2711180541
    430000 0.1472182505 199.9196332118
    440000 0.1336092833 204.5683305294
    450000 0.1212882710 209.2176291012
    460000 0.1100929450 213.8668223882
    470000 0.0999285875 218.5171445153
    480000 0.0907046303 223.1678315341
    490000 0.0823362369 227.8179283741
    500000 0.0747424589 232.4679037765
    510000 0.0678468607 237.1176326870
    520000 0.0615966580 241.7675368518
    530000 0.0559166710 246.4174855788
    540000 0.0507625916 251.0681228047
    550000 0.0460840149 255.7188122188
    560000 0.0418358961 260.3697731953
    570000 0.0379794372 265.0203498023
    580000 0.0344822572 269.6713902800
    590000 0.0313086268 274.3224170376
    600000 0.0284240061 278.9737897247
    610000 0.0258066721 283.6254619035
    620000 0.0234324036 288.2772264400
    630000 0.0212739290 292.9285871882
    640000 0.0193178185 297.5807174259
    650000 0.0175403093 302.2328999623
    660000 0.0159264738 306.8852204118
    670000 0.0144614711 311.5371967435
    680000 0.0131320108 316.1894825176
    690000 0.0119245979 320.8420211270
    700000 0.0108290069 325.4945055153
    710000 0.0098340603 330.1470690329
    720000 0.0089299708 334.7999914118
    730000 0.0081100785 339.4527154423
    740000 0.0073650536 344.1053536282
    750000 0.0066887748 348.7583544306
    760000 0.0060742153 353.4111571506
    770000 0.0055164265 358.0637855435
    780000 0.0050104264 362.7168792165
    790000 0.0045503028 367.3699257294
    800000 0.0041328679 372.0233636894
    810000 0.0037538541 376.6765127506
    820000 0.0034093931 381.3299721788
    830000 0.0030966760 385.9830607576
    840000 0.0028130269 390.6363483176
    850000 0.0025550941 395.2898761765
    860000 0.0023209574 399.9432579623
    870000 0.0021081539 404.5969721459
    880000 0.0019150187 409.2507190471
    890000 0.0017396688 413.9038674141
    900000 0.0015803338 418.5568388823
    910000 0.0014355875 423.2100741694
    920000 0.0013041783 427.8632103906
    930000 0.0011847903 432.5169284306
    940000 0.0010763257 437.1711800024
    950000 0.0009778455 441.8251402047
    960000 0.0008883644 446.4790554071
    970000 0.0008071017 451.1326511388
    980000 0.0007333048 455.7864897035
    990000 0.0006662488 460.4404542212
   1000000 0.0006053402 465.0942137153
   1010000 0.0005500098 469.7482049859
   1020000 0.0004997425 474.4024518141
   1030000 0.0004540839 479.0561668800
   1040000 0.0004125899 483.7095107106
   1050000 0.0003748943 488.3624863176
   1060000 0.0003406818 493.0146886141
   1070000 0.0003095586 497.6669711859
   1080000 0.0002813134 502.3193073176
   1090000 0.0002556434 506.9716308494
   1100000 0.0002323190 511.6241311953
   1110000 0.0002111167 516.2763045718
   1120000 0.0001918696 520.9289131365
   1130000 0.0001743729 525.5814010753
   1140000 0.0001584719 530.2340469412
   1150000 0.0001440279 534.8866825530
   1160000 0.0001308985 539.5392590730
   1170000 0.0001189743 544.1919247647
   1180000 0.0001081376 548.8447459741
   1190000 0.0000982879 553.4980220706
   1200000 0.0000893351 558.1506649365
   1210000 0.0000812029 562.8035269788
   1220000 0.0000738128 567.4558312447
   1230000 0.0000670991 572.1077689153
   1240000 0.0000609963 576.7591107482
   1250000 0.0000554480 581.4105033812
   1260000 0.0000504050 586.0615719929
   1270000 0.0000458251 590.7132110659
   1280000 0.0000416606 595.3646505035
   1290000 0.0000378757 600.0160798282
   1300000 0.0000344356 604.6672627553
   1310000 0.0000313085 609.3189856400
   1320000 0.0000284663 613.9704982141
   1330000 0.0000258830 618.6221642965
   1340000 0.0000235357 623.2738679247
   1350000 0.0000214014 627.9261257341
   1360000 0.0000194616 632.5779756588
   1370000 0.0000176977 637.2300348377
   1380000 0.0000160950 641.8818720235
   1390000 0.0000146378 646.5339446612
   1400000 0.0000133128 651.1857381930
   1410000 0.0000121084 655.8383039788
   1420000 0.0000110136 660.4912257459
   1430000 0.0000100181 665.1434997459
   1440000 0.0000091131 669.7958010683
   1450000 0.0000082904 674.4484587812
   1460000 0.0000075424 679.1003250118
   1470000 0.0000068622 683.7507438612
   1480000 0.0000062440 688.4008999177
   1490000 0.0000056820 693.0510586800
   1500000 0.0000051709 697.7016600894
   1510000 0.0000047060 702.3517832588
   1520000 0.0000042830 707.0022912306
   1530000 0.0000038981 711.6529788353
   1540000 0.0000035478 716.3038651883
   1550000 0.0000032290 720.9544974612
   1560000 0.0000029389 725.6053209671
   1570000 0.0000026749 730.2558445247
   1580000 0.0000024347 734.9063839177
   1590000 0.0000022162 739.5576514141
   1600000 0.0000020174 744.2084058800
   1610000 0.0000018366 748.8588818918
   1620000 0.0000016722 753.5097197835
   1630000 0.0000015228 758.1602763082
   1640000 0.0000013872 762.8103552094
   1650000 0.0000012644 767.4607329012
   1660000 0.0000011536 772.1113987483
   1670000 0.0000010537 776.7619058988
----------------------------------------
Residual norm: 0.00000100
E norm       : 0.00000414
L2 norm      : 0.00149885
C norm       : 0.00000779
Iterations   : 1675889 
Total time   : 779.500514 
